…
    ## `summarise()` has grouped output by 'city_state'. You can override using the
    ## `.groups` argument.

``` r
homicide_bycase
```

    ## # A tibble: 51 × 3
    ## # Groups:   city_state [51]
    ##    city_state     total_unsolved total_case
    ##    <fct>                   <int>      <int>
    ##  1 Albuquerque,NM            146        378
    ##  2 Atlanta,GA                373        973
    ##  3 Baltimore,MD             1825       2827
    ##  4 Baton Rouge,LA            196        424
    ##  5 Birmingham,AL             347        800
    ##  6 Boston,MA                 310        614
    ##  7 Buffalo,NY                319        521
    ##  8 Charlotte,NC              206        687
    ##  9 Chicago,IL               4073       5535
    ## 10 Cincinnati,OH             309        694
    ## # … with 41 more rows
…
``` r
prop_city = homicide_bycase %>%
  mutate(city_prop = map2(.x = total_unsolved, .y = total_case, .f= ~propt(x = .x, n = .y))) %>%
  unnest(city_prop) %>% 
  select(-total_unsolved, -total_case)
```

    ## Warning in prop.test(x, n): Chi-squared近似算法有可能不准

``` r
prop_city
```

    ## # A tibble: 51 × 4
    ## # Groups:   city_state [51]
    ##    city_state     estimate conf.low conf.high
    ##    <fct>             <dbl>    <dbl>     <dbl>
    ##  1 Albuquerque,NM    0.386    0.337     0.438
    ##  2 Atlanta,GA        0.383    0.353     0.415
    ##  3 Baltimore,MD      0.646    0.628     0.663
    ##  4 Baton Rouge,LA    0.462    0.414     0.511
    ##  5 Birmingham,AL     0.434    0.399     0.469
    ##  6 Boston,MA         0.505    0.465     0.545
    ##  7 Buffalo,NY        0.612    0.569     0.654
    ##  8 Charlotte,NC      0.300    0.266     0.336
    ##  9 Chicago,IL        0.736    0.724     0.747
    ## 10 Cincinnati,OH     0.445    0.408     0.483
    ## # … with 41 more rows
…
